1|host2|ACTIVE|0|3|8|09/09/2019,09/10/2019,09/11/2019,09/12/2019,09/13/2019|09/09/2019,09/10/2019,09/11/2019,09/12/2019,09/13/2019|14|10 Am|8 PM|WiFi_Cable TV_Air conditioning_Crib|Vojvode Stepe, Belgrade, Serbia|44.7609797|20.4848242|1|11000|2.jpg*1.jpg|True
2|host2|ACTIVE|0|2|10|09/09/2019,09/10/2019,09/11/2019,09/12/2019,09/13/2019,09/14/2019,09/15/2019,09/16/2019,09/17/2019,09/18/2019,09/25/2019,09/26/2019,09/27/2019|09/09/2019, 09/10/2019, 09/11/2019, 09/12/2019, 09/16/2019, 09/17/2019, 09/18/2019, 09/25/2019, 09/26/2019, 09/27/2019|30|10 AM|7 PM|Cable TV_Heating_Air conditioning_High chair|Tihomira Ostojića, Novi Sad, Serbia|45.2422807|19.8194539|12|21000|3.jpg|False
3|host2|INACTIVE|1|1|2|09/09/2019,09/10/2019,09/11/2019,09/16/2019,09/17/2019,09/18/2019|09/09/2019,09/10/2019,09/11/2019,09/16/2019,09/17/2019,09/18/2019|4|10 AM|20 PM|WiFi_Cable TV_Heating|Narodnog fronta, Novi Sad, Serbia|45.2397655|19.8359375|3|21000|4.jpg|FALSE
4|host1|ACTIVE|0|3|5|09/09/2019,09/10/2019,09/16/2019|09/09/2019,09/10/2019,09/16/2019|6|7 AM|7 PM|Heating_Air conditioning_Hot water|Bulevar Evrope, Novi Sad, Serbia|19.8098082|45.2585858|123|21000|5.jpg|False
5|host1|INACTIVE|1|1|1|09/17/2019,09/18/2019,09/19/2019,09/20/2019,09/21/2019|09/17/2019,09/18/2019,09/19/2019,09/20/2019,09/21/2019|15|6 AM|8 PM|Air conditioning_Hot water|Marka Kraljevica, Sombor, Serbia|45.7795906|19.11936209999999|25|25000|7.jpg|FALSE
6|host3|ACTIVE|0|2|4|09/17/2019,09/18/2019,09/19/2019,09/20/2019,09/21/2019|09/17/2019,09/18/2019,09/19/2019,09/20/2019,09/21/2019|11|8 AM|8 PM|Cable TV_Heating|Jovana Jovanovica Zmaja, Petrovac, Serbia|21.4154697|44.3736407|12|11000|8.jpg|False
